<svg width="77" height="92" viewBox="0 0 77 92" fill="none" xmlns="http://www.w3.org/2000/svg">
<path d="M60.0001 28V1H1V91.0001H60.0001V65" stroke="black" stroke-linecap="round" stroke-linejoin="round"/>
<rect x="34.75" y="8.25" width="2.5" height="8.50001" transform="rotate(90 34.75 8.25)" stroke="black" stroke-linecap="round" stroke-linejoin="round"/>
<path d="M42.25 64H19.25L21.5 66.75H40L42.25 64Z" stroke="black" stroke-linecap="round" stroke-linejoin="round"/>
<path d="M53.5 1L50.5 28M48.5 65V91.0001" stroke="black" stroke-linecap="round" stroke-linejoin="round"/>
<path d="M7.25 1L12.25 61.5432V91.0001" stroke="black" stroke-linecap="round" stroke-linejoin="round"/>
<path d="M1.125 54.875C4.83334 56.8333 12.25 61.375 12.25 61.375H44.5" stroke="black" stroke-linecap="round" stroke-linejoin="round"/>
<rect x="48" y="32" width="28" height="28" stroke="#C42926" stroke-linecap="round" stroke-linejoin="round"/>
<path d="M66.6142 54.031C66.8094 54.2262 67.126 54.2262 67.3213 54.031L70.5032 50.849C70.6985 50.6537 70.6985 50.3371 70.5032 50.1419C70.308 49.9466 69.9914 49.9466 69.7961 50.1419L66.9677 52.9703L64.1393 50.1419C63.944 49.9466 63.6274 49.9466 63.4322 50.1419C63.2369 50.3371 63.2369 50.6537 63.4322 50.849L66.6142 54.031ZM56.5322 53.6774C56.5322 53.9535 56.7561 54.1774 57.0322 54.1774C57.3084 54.1774 57.5322 53.9535 57.5322 53.6774H56.5322ZM66.4677 41.4839V53.6774H67.4677V41.4839H66.4677ZM57.5322 53.6774V41.4839H56.5322V53.6774H57.5322ZM62 37.0161C64.4674 37.0161 66.4677 39.0164 66.4677 41.4839H67.4677C67.4677 38.4641 65.0197 36.0161 62 36.0161V37.0161ZM62 36.0161C58.9802 36.0161 56.5322 38.4641 56.5322 41.4839H57.5322C57.5322 39.0164 59.5325 37.0161 62 37.0161V36.0161Z" fill="#C42926"/>
</svg>
