<svg width="77" height="92" viewBox="0 0 77 92" fill="none" xmlns="http://www.w3.org/2000/svg">
<path d="M60.0001 28V1H1V91.0001H60.0001V65" stroke="black" stroke-linecap="round" stroke-linejoin="round"/>
<rect x="34.75" y="8.25" width="2.5" height="8.50001" transform="rotate(90 34.75 8.25)" stroke="black" stroke-linecap="round" stroke-linejoin="round"/>
<path d="M42.25 64H19.25L21.5 66.75H40L42.25 64Z" stroke="black" stroke-linecap="round" stroke-linejoin="round"/>
<path d="M53.5 1L50.5 28M48.5 65V91.0001" stroke="black" stroke-linecap="round" stroke-linejoin="round"/>
<path d="M7.25 1L12.25 61.5432V91.0001" stroke="black" stroke-linecap="round" stroke-linejoin="round"/>
<path d="M1.125 54.875C4.83334 56.8333 12.25 61.375 12.25 61.375H44.5" stroke="black" stroke-linecap="round" stroke-linejoin="round"/>
<path d="M62 32H48V60H62" stroke="#C42926" stroke-linecap="round" stroke-linejoin="round"/>
<path d="M62 32H76V60H62" stroke="#C42926" stroke-linecap="round" stroke-linejoin="round"/>
<line x1="53.3536" y1="36.6609" x2="70.8393" y2="54.1466" stroke="#C42926"/>
<path d="M71 36.5L53.5 54" stroke="#C42926"/>
</svg>
