<svg width="73" height="94" viewBox="0 0 73 94" fill="none" xmlns="http://www.w3.org/2000/svg">
<path d="M43.4797 56.4234H63.4329V67.3913V92.7019H43.4797V67.3913V56.4234Z" stroke="#C4C4C4" stroke-linecap="round" stroke-linejoin="round"/>
<path d="M46.1029 59.365H60.8104V69.4436V92.702H46.1029V69.4436V59.365Z" stroke="#C4C4C4" stroke-linecap="round" stroke-linejoin="round"/>
<path d="M24.4338 61.7671H28.9686V52.1338C28.9686 49.6292 26.9383 47.5989 24.4338 47.5989H5.84103V52.1338H24.4338V61.7671Z" stroke="#C42926" stroke-linecap="round" stroke-linejoin="round"/>
<path d="M19.0797 18.6622H35.4373V24.6486V38.4635H19.0797V24.6486V18.6622Z" stroke="#C4C4C4" stroke-linecap="round" stroke-linejoin="round"/>
<path d="M20.8015 20.384H33.7155V25.8499V38.4635H20.8015V25.8499V20.384Z" stroke="#C4C4C4" stroke-linecap="round" stroke-linejoin="round"/>
<path d="M17.3578 38.4635H37.1592V39.7649V42.7681H17.3578V39.7649V38.4635Z" stroke="#C4C4C4" stroke-linecap="round" stroke-linejoin="round"/>
<path d="M44.9072 18.6622H61.2648V24.6487V38.4636H44.9072V24.6487V18.6622Z" stroke="#C4C4C4" stroke-linecap="round" stroke-linejoin="round"/>
<path d="M46.6291 20.384H59.543V25.8499V38.4635H46.6291V25.8499V20.384Z" stroke="#C4C4C4" stroke-linecap="round" stroke-linejoin="round"/>
<path d="M43.1854 38.4636H62.9867V39.765V42.7682H43.1854V39.765V38.4636Z" stroke="#C4C4C4" stroke-linecap="round" stroke-linejoin="round"/>
<path d="M33.5034 74.5206L33.5034 61.8653L30.7825 61.8653M33.5034 74.5206L33.5034 80.0046L29.8755 80.0046M33.5034 74.5206L29.8755 74.5206M19.8989 74.5206L19.8989 80.0046L23.5268 80.0046M19.8989 74.5206L19.8989 61.8653L22.6198 61.8653M19.8989 74.5206L23.5268 74.5206M22.6198 61.8653L23.5268 74.5206M22.6198 61.8653L30.7825 61.8653M23.5268 74.5206L23.5268 80.0046M23.5268 74.5206L29.8755 74.5206M23.5268 80.0046L29.8755 80.0046M30.7825 61.8653L29.8755 74.5206M29.8755 74.5206C29.8755 74.5206 29.8755 78.1766 29.8755 80.0046M24.8872 75.9232L28.5151 75.9232" stroke="#C42926" stroke-linecap="round" stroke-linejoin="round"/>
<path d="M71.5962 92.702H9.01571" stroke="#C4C4C4" stroke-linecap="round" stroke-linejoin="round"/>
<path d="M9.01571 15.2424V45.1477M9.01571 92.702V54.9527" stroke="#C42926" stroke-linecap="round" stroke-linejoin="round"/>
<path d="M71.5961 0.534912H8.8757L1 14.2619H71.5961" stroke="#C4C4C4" stroke-linecap="round" stroke-linejoin="round"/>
</svg>
