<svg width="96" height="92" viewBox="0 0 96 92" fill="none" xmlns="http://www.w3.org/2000/svg">
<path d="M95.4171 91H0.582031" stroke="#C4C4C4" stroke-linecap="round" stroke-linejoin="round"/>
<path d="M0.582031 1.00122H95.4171M95.4171 8.74286H0.582031" stroke="#C4C4C4" stroke-linecap="round" stroke-linejoin="round"/>
<rect x="33.9678" y="71.1597" width="11.6125" height="19.838" stroke="#C42926" stroke-linecap="round" stroke-linejoin="round"/>
<rect x="35.9033" y="73.5791" width="7.74164" height="8.70934" stroke="#C42926" stroke-linecap="round" stroke-linejoin="round"/>
<path d="M50.4189 74.4343V84.2239H60.096V74.4343M50.4189 74.4343V70.1921H60.096V74.4343M50.4189 74.4343H60.096" stroke="#C42926" stroke-linecap="round" stroke-linejoin="round"/>
<path d="M66.3855 36.3225V8.74292H29.1289V36.3225" stroke="#C42926" stroke-linecap="round" stroke-linejoin="round"/>
<path d="M50.5312 20.0395V29.9931H60.153V20.0395M50.5312 20.0395V15.7263H60.153V20.0395M50.5312 20.0395H60.153" stroke="#C42926" stroke-linecap="round" stroke-linejoin="round"/>
<path d="M35.4189 20.0395V29.9931H45.0407V20.0395M35.4189 20.0395V15.7263H45.0407V20.0395M35.4189 20.0395H45.0407" stroke="#C42926" stroke-linecap="round" stroke-linejoin="round"/>
<path d="M29.1289 63.4182V90.9978H66.3855V63.4182" stroke="#C42926" stroke-linecap="round" stroke-linejoin="round"/>
<path d="M29.1289 36.3225V63.4182M66.3855 36.3225V63.4182" stroke="#C4C4C4" stroke-linecap="round" stroke-linejoin="round"/>
<path d="M50.5312 47.5288V57.4823H60.153V47.5288M50.5312 47.5288V43.2156H60.153V47.5288M50.5312 47.5288H60.153" stroke="#C42926" stroke-linecap="round" stroke-linejoin="round"/>
<path d="M35.4189 47.5288V57.4823H45.0407V47.5288M35.4189 47.5288V43.2156H45.0407V47.5288M35.4189 47.5288H45.0407" stroke="#C42926" stroke-linecap="round" stroke-linejoin="round"/>
<rect x="71.2246" y="71.1597" width="11.6125" height="19.838" stroke="#C4C4C4" stroke-linecap="round" stroke-linejoin="round"/>
<rect x="73.1602" y="73.5791" width="7.74164" height="8.70934" stroke="#C4C4C4" stroke-linecap="round" stroke-linejoin="round"/>
<path d="M66.3857 1V28.5796" stroke="#C42926" stroke-linecap="round" stroke-linejoin="round"/>
<path d="M72.6758 20.0395V29.9931H82.2975V20.0395M72.6758 20.0395V15.7263H82.2975V20.0395M72.6758 20.0395H82.2975" stroke="#C4C4C4" stroke-linecap="round" stroke-linejoin="round"/>
<path d="M66.3857 36.3225V63.4182" stroke="#C42926" stroke-linecap="round" stroke-linejoin="round"/>
<path d="M72.6758 47.5288V57.4823H82.2975V47.5288M72.6758 47.5288V43.2156H82.2975V47.5288M72.6758 47.5288H82.2975" stroke="#C4C4C4" stroke-linecap="round" stroke-linejoin="round"/>
<path d="M13.1621 74.4343V84.2239H22.8392V74.4343M13.1621 74.4343V70.1921H22.8392V74.4343M13.1621 74.4343H22.8392" stroke="#C4C4C4" stroke-linecap="round" stroke-linejoin="round"/>
<path d="M29.1289 1V28.5796" stroke="#C42926" stroke-linecap="round" stroke-linejoin="round"/>
<path d="M13.2744 20.0395V29.9931H22.8962V20.0395M13.2744 20.0395V15.7263H22.8962V20.0395M13.2744 20.0395H22.8962" stroke="#C4C4C4" stroke-linecap="round" stroke-linejoin="round"/>
<path d="M29.1289 36.3225V63.4182" stroke="#C42926" stroke-linecap="round" stroke-linejoin="round"/>
<path d="M66.3857 1L29.1291 1" stroke="#C42926" stroke-linecap="round" stroke-linejoin="round"/>
<path d="M13.2744 47.5288V57.4823H22.8962V47.5288M13.2744 47.5288V43.2156H22.8962V47.5288M13.2744 47.5288H22.8962" stroke="#C4C4C4" stroke-linecap="round" stroke-linejoin="round"/>
</svg>
