<svg width="68" height="92" viewBox="0 0 68 92" fill="none" xmlns="http://www.w3.org/2000/svg">
<path d="M46.3285 31.5018V9.88506C37 3.49985 11 3.49996 1 9.88506V83.4617C10 88.5 38.5 88.5 46.3285 83.4617V64.5018M1 13C11 6.6149 37 6.61478 46.3285 13M46.3285 80.5C38.5 85.5383 10 85.5383 1 80.5M42 85.2631C34.0152 92.6654 14.7374 92.5071 5.74736 85.2631" stroke="black" stroke-linecap="round" stroke-linejoin="round"/>
<path d="M21 2C21 1.44772 21.4477 1 22 1H25C25.5523 1 26 1.44772 26 2V5H21V2Z" stroke="black" stroke-linecap="round" stroke-linejoin="round"/>
<circle cx="23.9931" cy="60.5985" r="4.59854" stroke="black" stroke-linecap="round" stroke-linejoin="round"/>
<circle cx="34.5" cy="21.5" r="1.5" stroke="black" stroke-linecap="round" stroke-linejoin="round"/>
<circle cx="34.5" cy="27.5" r="1.5" stroke="black" stroke-linecap="round" stroke-linejoin="round"/>
<circle cx="20.5" cy="75.5" r="1.5" stroke="black" stroke-linecap="round" stroke-linejoin="round"/>
<circle cx="27.5" cy="75.5" r="1.5" stroke="black" stroke-linecap="round" stroke-linejoin="round"/>
<path d="M47.9028 53.0543V51.5715C47.9028 50.1231 48.219 49.3645 48.9583 48.3145L51.3186 44.9859C52.5498 43.2499 52.972 42.4178 52.972 41.1872C52.972 39.1255 51.5641 37.8233 49.5562 37.8233C47.5847 37.8233 46.3172 39.0529 45.895 41.2598C45.8596 41.4767 45.7192 41.5856 45.5071 41.5493L43.2892 41.1509C43.0771 41.1146 42.9721 40.9703 43.0064 40.7525C43.5356 37.2796 45.9657 35 49.6279 35C53.4296 35 56 37.5681 56 41.1499C56 42.8868 55.403 44.1527 54.2052 45.8533L51.8459 49.182C51.1419 50.1584 50.9298 50.6647 50.9298 51.8943V53.0512C50.9298 53.2681 50.7894 53.4123 50.5783 53.4123H48.2543C48.0432 53.4164 47.9028 53.2711 47.9028 53.0543ZM47.7271 56.5281C47.7271 56.3113 47.8675 56.167 48.0795 56.167H50.756C50.9671 56.167 51.1075 56.3123 51.1075 56.5281V59.6389C51.1075 59.8568 50.9661 60 50.756 60H48.0795C47.8665 60 47.7271 59.8558 47.7271 59.6389V56.5281Z" stroke="#C42926"/>
<path d="M38.0171 54.8326V53.9429C38.0171 53.0738 38.2117 52.6187 38.6666 51.9887L40.1191 49.9915C40.8768 48.95 41.1366 48.4507 41.1366 47.7123C41.1366 46.4753 40.2702 45.694 39.0346 45.694C37.8214 45.694 37.0413 46.4317 36.7815 47.7559C36.7598 47.886 36.6734 47.9514 36.5429 47.9296L35.178 47.6905C35.0475 47.6688 34.9828 47.5822 35.0039 47.4515C35.3296 45.3678 36.825 44 39.0787 44C41.4182 44 43 45.5409 43 47.6899C43 48.7321 42.6326 49.4916 41.8955 50.512L40.4436 52.5092C40.0104 53.095 39.8799 53.3988 39.8799 54.1366V54.8307C39.8799 54.9609 39.7935 55.0474 39.6636 55.0474H38.2334C38.1035 55.0498 38.0171 54.9627 38.0171 54.8326ZM37.909 56.9169C37.909 56.7868 37.9954 56.7002 38.1259 56.7002H39.7729C39.9028 56.7002 39.9892 56.7874 39.9892 56.9169V58.7833C39.9892 58.9141 39.9022 59 39.7729 59H38.1259C37.9948 59 37.909 58.9135 37.909 58.7833V56.9169Z" stroke="#C42926" stroke-width="0.75"/>
<path d="M61.3943 53.9991V52.9315C61.3943 51.8886 61.6131 51.3425 62.125 50.5864L63.759 48.1898C64.6114 46.94 64.9037 46.3408 64.9037 45.4548C64.9037 43.9703 63.929 43.0328 62.5389 43.0328C61.174 43.0328 60.2965 43.9181 60.0042 45.5071C59.9797 45.6632 59.8825 45.7417 59.7357 45.7155L58.2002 45.4286C58.0534 45.4025 57.9807 45.2986 58.0044 45.1418C58.3708 42.6413 60.0532 41 62.5885 41C65.2205 41 67 42.849 67 45.4279C67 46.6785 66.5867 47.59 65.7575 48.8144L64.1241 51.211C63.6367 51.914 63.4899 52.2786 63.4899 53.1639V53.9969C63.4899 54.153 63.3927 54.2569 63.2465 54.2569H61.6376C61.4915 54.2598 61.3943 54.1552 61.3943 53.9991ZM61.2726 56.5003C61.2726 56.3441 61.3698 56.2403 61.5166 56.2403H63.3696C63.5157 56.2403 63.6129 56.3448 63.6129 56.5003V58.74C63.6129 58.8969 63.515 59 63.3696 59H61.5166C61.3691 59 61.2726 58.8961 61.2726 58.74V56.5003Z" stroke="#C42926" stroke-width="0.8"/>
</svg>
